counter.vcd
$version Generated by VerilatedVcd $end
$date Mon Dec 26 01:24:58 2016
 $end
$timescale 1ns $end

 $scope module TOP $end
  $var wire  1 ) clk $end
  $scope module v $end
   $var wire  1 ) clk $end
   $var wire 32 # in [31:0] $end
   $var wire 32 & out [31:0] $end
   $var wire  1 ( ready_in $end
   $var wire  1 % ready_out $end
   $var wire  1 $ valid_in $end
   $var wire  1 ' valid_out $end
  $upscope $end
 $upscope $end
$enddefinitions $end


#0
b00000000000000000000000000000000 #
0$
0%
b00000000000000000000000000000001 &
1'
1(
1)
#1
#2
0)
#3
#4
b00000000000000000000000000000001 #
1$
1%
0'
0(
1)
#5
#6
0)
#7
#8
0$
0%
b00000000000000000000000000000010 &
1'
1(
1)
#9
#10
0)
#11
#12
b00000000000000000000000000000010 #
1$
1%
0'
0(
1)
#13
#14
0)
#15
#16
0$
0%
b00000000000000000000000000000011 &
1'
1(
1)
#17
#18
0)
#19
#20
b00000000000000000000000000000011 #
1$
1%
0'
0(
1)
#21
#22
0)
#23
#24
0$
0%
b00000000000000000000000000000100 &
1'
1(
1)
#25
#26
0)
#27
#28
b00000000000000000000000000000100 #
1$
1%
0'
0(
1)
#29
#30
0)
#31
#32
0$
0%
b00000000000000000000000000000101 &
1'
1(
1)
#33
#34
0)
#35
#36
b00000000000000000000000000000101 #
1$
1%
0'
0(
1)
#37
#38
0)
#39
#40
0$
0%
b00000000000000000000000000000110 &
1'
1(
1)
#41
#42
0)
#43
#44
b00000000000000000000000000000110 #
1$
1%
0'
0(
1)
#45
#46
0)
#47
#48
0$
0%
b00000000000000000000000000000111 &
1'
1(
1)
#49
#50
0)
#51
#52
b00000000000000000000000000000111 #
1$
1%
0'
0(
1)
#53
#54
0)
#55
#56
0$
0%
b00000000000000000000000000001000 &
1'
1(
1)
#57
#58
0)
#59
#60
b00000000000000000000000000001000 #
1$
1%
0'
0(
1)
#61
#62
0)
#63
#64
0$
0%
b00000000000000000000000000001001 &
1'
1(
1)
#65
#66
0)
#67
#68
b00000000000000000000000000001001 #
1$
1%
0'
0(
1)
#69
#70
0)
#71
#72
0$
0%
b00000000000000000000000000001010 &
1'
1(
1)
#73
#74
0)
#75
#76
b00000000000000000000000000001010 #
1$
1%
0'
0(
1)
#77
#78
0)
#79
#80
0$
0%
b00000000000000000000000000001011 &
1'
1(
1)
#81
#82
0)
#83
#84
b00000000000000000000000000001011 #
1$
1%
0'
0(
1)
#85
#86
0)
#87
#88
0$
0%
b00000000000000000000000000001100 &
1'
1(
1)
#89
#90
0)
#91
#92
b00000000000000000000000000001100 #
1$
1%
0'
0(
1)
#93
#94
0)
#95
#96
0$
0%
b00000000000000000000000000001101 &
1'
1(
1)
#97
#98
0)
#99
#100
b00000000000000000000000000001101 #
1$
1%
0'
0(
1)
#101
#102
0)
#103
#104
0$
0%
b00000000000000000000000000001110 &
1'
1(
1)
#105
#106
0)
#107
#108
b00000000000000000000000000001110 #
1$
1%
0'
0(
1)
#109
#110
0)
#111
#112
0$
0%
b00000000000000000000000000001111 &
1'
1(
1)
#113
#114
0)
#115
#116
b00000000000000000000000000001111 #
1$
1%
0'
0(
1)
#117
#118
0)
#119
#120
0$
0%
b00000000000000000000000000010000 &
1'
1(
1)
#121
#122
0)
#123
#124
b00000000000000000000000000010000 #
1$
1%
0'
0(
1)
#125
#126
0)
#127
#128
0$
0%
b00000000000000000000000000010001 &
1'
1(
1)
#129
#130
0)
#131
#132
b00000000000000000000000000010001 #
1$
1%
0'
0(
1)
#133
#134
0)
#135
#136
0$
0%
b00000000000000000000000000010010 &
1'
1(
1)
#137
#138
0)
#139
#140
b00000000000000000000000000010010 #
1$
1%
0'
0(
1)
#141
#142
0)
#143
#144
0$
0%
b00000000000000000000000000010011 &
1'
1(
1)
#145
#146
0)
#147
#148
b00000000000000000000000000010011 #
1$
1%
0'
0(
1)
#149
#150
0)
#151
#152
0$
0%
b00000000000000000000000000010100 &
1'
1(
1)
#153
#154
0)
#155
#156
b00000000000000000000000000010100 #
1$
1%
0'
0(
1)
#157
#158
0)
#159
#160
0$
0%
b00000000000000000000000000010101 &
1'
1(
1)
#161
#162
0)
#163
#164
b00000000000000000000000000010101 #
1$
1%
0'
0(
1)
#165
#166
0)
#167
#168
0$
0%
b00000000000000000000000000010110 &
1'
1(
1)
#169
#170
0)
#171
#172
b00000000000000000000000000010110 #
1$
1%
0'
0(
1)
#173
#174
0)
#175
#176
0$
0%
b00000000000000000000000000010111 &
1'
1(
1)
#177
#178
0)
#179
#180
b00000000000000000000000000010111 #
1$
1%
0'
0(
1)
#181
#182
0)
#183
#184
0$
0%
b00000000000000000000000000011000 &
1'
1(
1)
#185
#186
0)
#187
#188
b00000000000000000000000000011000 #
1$
1%
0'
0(
1)
#189
#190
0)
#191
#192
0$
0%
b00000000000000000000000000011001 &
1'
1(
1)
#193
#194
0)
#195
#196
b00000000000000000000000000011001 #
1$
1%
0'
0(
1)
#197
#198
0)
#199
#200
0$
0%
b00000000000000000000000000011010 &
1'
1(
1)
#201
#202
0)
#203
#204
b00000000000000000000000000011010 #
1$
1%
0'
0(
1)
#205
#206
0)
#207
#208
0$
0%
b00000000000000000000000000011011 &
1'
1(
1)
#209
#210
0)
#211
#212
b00000000000000000000000000011011 #
1$
1%
0'
0(
1)
#213
#214
0)
#215
#216
0$
0%
b00000000000000000000000000011100 &
1'
1(
1)
#217
#218
0)
#219
#220
b00000000000000000000000000011100 #
1$
1%
0'
0(
1)
#221
#222
0)
#223
#224
0$
0%
b00000000000000000000000000011101 &
1'
1(
1)
#225
#226
0)
#227
#228
b00000000000000000000000000011101 #
1$
1%
0'
0(
1)
#229
#230
0)
#231
#232
0$
0%
b00000000000000000000000000011110 &
1'
1(
1)
#233
#234
0)
#235
#236
b00000000000000000000000000011110 #
1$
1%
0'
0(
1)
#237
#238
0)
#239
#240
0$
0%
b00000000000000000000000000011111 &
1'
1(
1)
#241
#242
0)
#243
#244
b00000000000000000000000000011111 #
1$
1%
0'
0(
1)
#245
#246
0)
#247
#248
0$
0%
b00000000000000000000000000100000 &
1'
1(
1)
#249
#250
0)
#251
#252
b00000000000000000000000000100000 #
1$
1%
0'
0(
1)
#253
#254
0)
#255
#256
0$
0%
b00000000000000000000000000100001 &
1'
1(
1)
#257
#258
0)
#259
#260
b00000000000000000000000000100001 #
1$
1%
0'
0(
1)
#261
#262
0)
#263
#264
0$
0%
b00000000000000000000000000100010 &
1'
1(
1)
#265
#266
0)
#267
#268
b00000000000000000000000000100010 #
1$
1%
0'
0(
1)
#269
#270
0)
#271
#272
0$
0%
b00000000000000000000000000100011 &
1'
1(
1)
#273
#274
0)
#275
#276
b00000000000000000000000000100011 #
1$
1%
0'
0(
1)
#277
#278
0)
#279
#280
0$
0%
b00000000000000000000000000100100 &
1'
1(
1)
#281
#282
0)
#283
#284
b00000000000000000000000000100100 #
1$
1%
0'
0(
1)
#285
#286
0)
#287
#288
0$
0%
b00000000000000000000000000100101 &
1'
1(
1)
#289
#290
0)
#291
#292
b00000000000000000000000000100101 #
1$
1%
0'
0(
1)
#293
#294
0)
#295
#296
0$
0%
b00000000000000000000000000100110 &
1'
1(
1)
#297
#298
0)
#299
#300
b00000000000000000000000000100110 #
1$
1%
0'
0(
1)
#301
#302
0)
#303
#304
0$
0%
b00000000000000000000000000100111 &
1'
1(
1)
#305
#306
0)
#307
#308
b00000000000000000000000000100111 #
1$
1%
0'
0(
1)
#309
#310
0)
#311
#312
0$
0%
b00000000000000000000000000101000 &
1'
1(
1)
#313
#314
0)
#315
#316
b00000000000000000000000000101000 #
1$
1%
0'
0(
1)
#317
#318
0)
#319
#320
0$
0%
b00000000000000000000000000101001 &
1'
1(
1)
#321
#322
0)
#323
#324
b00000000000000000000000000101001 #
1$
1%
0'
0(
1)
#325
#326
0)
#327
#328
0$
0%
b00000000000000000000000000101010 &
1'
1(
1)
#329
#330
0)
#331
#332
b00000000000000000000000000101010 #
1$
1%
0'
0(
1)
#333
#334
0)
#335
#336
0$
0%
b00000000000000000000000000101011 &
1'
1(
1)
#337
#338
0)
#339
#340
b00000000000000000000000000101011 #
1$
1%
0'
0(
1)
#341
#342
0)
#343
#344
0$
0%
b00000000000000000000000000101100 &
1'
1(
1)
#345
#346
0)
#347
#348
b00000000000000000000000000101100 #
1$
1%
0'
0(
1)
#349
#350
0)
#351
#352
0$
0%
b00000000000000000000000000101101 &
1'
1(
1)
#353
#354
0)
#355
#356
b00000000000000000000000000101101 #
1$
1%
0'
0(
1)
#357
#358
0)
#359
#360
0$
0%
b00000000000000000000000000101110 &
1'
1(
1)
#361
#362
0)
#363
#364
b00000000000000000000000000101110 #
1$
1%
0'
0(
1)
#365
#366
0)
#367
#368
0$
0%
b00000000000000000000000000101111 &
1'
1(
1)
#369
#370
0)
#371
#372
b00000000000000000000000000101111 #
1$
1%
0'
0(
1)
#373
#374
0)
#375
#376
0$
0%
b00000000000000000000000000110000 &
1'
1(
1)
#377
#378
0)
#379
#380
b00000000000000000000000000110000 #
1$
1%
0'
0(
1)
#381
#382
0)
#383
#384
0$
0%
b00000000000000000000000000110001 &
1'
1(
1)
#385
#386
0)
#387
#388
b00000000000000000000000000110001 #
1$
1%
0'
0(
1)
#389
#390
0)
#391
#392
0$
0%
b00000000000000000000000000110010 &
1'
1(
1)
#393
#394
0)
#395
#396
b00000000000000000000000000110010 #
1$
1%
0'
0(
1)
#397
#398
0)
#399
#400
0$
0%
b00000000000000000000000000110011 &
1'
1(
1)
#401
#402
0)
#403
#404
b00000000000000000000000000110011 #
1$
1%
0'
0(
1)
#405
#406
0)
#407
#408
0$
0%
b00000000000000000000000000110100 &
1'
1(
1)
#409
#410
0)
#411
#412
b00000000000000000000000000110100 #
1$
1%
0'
0(
1)
#413
#414
0)
#415
#416
0$
0%
b00000000000000000000000000110101 &
1'
1(
1)
#417
#418
0)
#419
#420
b00000000000000000000000000110101 #
1$
1%
0'
0(
1)
#421
#422
0)
#423
#424
0$
0%
b00000000000000000000000000110110 &
1'
1(
1)
#425
#426
0)
#427
#428
b00000000000000000000000000110110 #
1$
1%
0'
0(
1)
#429
#430
0)
#431
#432
0$
0%
b00000000000000000000000000110111 &
1'
1(
1)
#433
#434
0)
#435
#436
b00000000000000000000000000110111 #
1$
1%
0'
0(
1)
#437
#438
0)
#439
#440
0$
0%
b00000000000000000000000000111000 &
1'
1(
1)
#441
#442
0)
#443
#444
b00000000000000000000000000111000 #
1$
1%
0'
0(
1)
#445
#446
0)
#447
#448
0$
0%
b00000000000000000000000000111001 &
1'
1(
1)
#449
#450
0)
#451
#452
b00000000000000000000000000111001 #
1$
1%
0'
0(
1)
#453
#454
0)
#455
#456
0$
0%
b00000000000000000000000000111010 &
1'
1(
1)
#457
#458
0)
#459
#460
b00000000000000000000000000111010 #
1$
1%
0'
0(
1)
#461
#462
0)
#463
#464
0$
0%
b00000000000000000000000000111011 &
1'
1(
1)
#465
#466
0)
#467
#468
b00000000000000000000000000111011 #
1$
1%
0'
0(
1)
#469
#470
0)
#471
#472
0$
0%
b00000000000000000000000000111100 &
1'
1(
1)
#473
#474
0)
#475
#476
b00000000000000000000000000111100 #
1$
1%
0'
0(
1)
#477
#478
0)
#479
#480
0$
0%
b00000000000000000000000000111101 &
1'
1(
1)
#481
#482
0)
#483
#484
b00000000000000000000000000111101 #
1$
1%
0'
0(
1)
#485
#486
0)
#487
#488
0$
0%
b00000000000000000000000000111110 &
1'
1(
1)
#489
#490
0)
#491
#492
b00000000000000000000000000111110 #
1$
1%
0'
0(
1)
#493
#494
0)
#495
#496
0$
0%
b00000000000000000000000000111111 &
1'
1(
1)
#497
#498
0)
#499
#500
b00000000000000000000000000111111 #
1$
1%
0'
0(
1)
#501
#502
0)
#503
#504
0$
0%
b00000000000000000000000001000000 &
1'
1(
1)
#505
#506
0)
#507
#508
b00000000000000000000000001000000 #
1$
1%
0'
0(
1)
#509
#510
0)
#511
#512
0$
0%
b00000000000000000000000001000001 &
1'
1(
1)
#513
#514
0)
#515
#516
b00000000000000000000000001000001 #
1$
1%
0'
0(
1)
#517
#518
0)
#519
#520
0$
0%
b00000000000000000000000001000010 &
1'
1(
1)
#521
#522
0)
#523
#524
b00000000000000000000000001000010 #
1$
1%
0'
0(
1)
#525
#526
0)
#527
#528
0$
0%
b00000000000000000000000001000011 &
1'
1(
1)
#529
#530
0)
#531
#532
b00000000000000000000000001000011 #
1$
1%
0'
0(
1)
#533
#534
0)
#535
#536
0$
0%
b00000000000000000000000001000100 &
1'
1(
1)
#537
#538
0)
#539
#540
b00000000000000000000000001000100 #
1$
1%
0'
0(
1)
#541
#542
0)
#543
#544
0$
0%
b00000000000000000000000001000101 &
1'
1(
1)
#545
#546
0)
#547
#548
b00000000000000000000000001000101 #
1$
1%
0'
0(
1)
#549
#550
0)
#551
#552
0$
0%
b00000000000000000000000001000110 &
1'
1(
1)
#553
#554
0)
#555
#556
b00000000000000000000000001000110 #
1$
1%
0'
0(
1)
#557
#558
0)
#559
#560
0$
0%
b00000000000000000000000001000111 &
1'
1(
1)
#561
#562
0)
#563
#564
b00000000000000000000000001000111 #
1$
1%
0'
0(
1)
#565
#566
0)
#567
#568
0$
0%
b00000000000000000000000001001000 &
1'
1(
1)
#569
#570
0)
#571
#572
b00000000000000000000000001001000 #
1$
1%
0'
0(
1)
#573
#574
0)
#575
#576
0$
0%
b00000000000000000000000001001001 &
1'
1(
1)
#577
#578
0)
#579
#580
b00000000000000000000000001001001 #
1$
1%
0'
0(
1)
#581
#582
0)
#583
#584
0$
0%
b00000000000000000000000001001010 &
1'
1(
1)
#585
#586
0)
#587
#588
b00000000000000000000000001001010 #
1$
1%
0'
0(
1)
#589
#590
0)
#591
#592
0$
0%
b00000000000000000000000001001011 &
1'
1(
1)
#593
#594
0)
#595
#596
b00000000000000000000000001001011 #
1$
1%
0'
0(
1)
